<svg width="20" height="20" viewBox="0 0 20 20" fill="none" xmlns="http://www.w3.org/2000/svg">
<path d="M10.1434 10L7.78589 7.64334L8.96424 6.46417L12.5001 10L8.96424 13.5358L7.78589 12.3567L10.1434 10Z" fill="currentColor"/>
</svg>
